Image:,CirrOS_0.3.2,CirrOS_0.3.2,CirrOS_0.3.2,CirrOS_0.3.2,CirrOS_0.3.2
Flavor:,m1.nano,m1.nano,m1.nano,m1.nano,m1.nano
n:,30,30,30,30,30
Interval:,95%,95%,95%,95%,95%
t:,2.042,2.042,2.042,2.042,2.042
type:,Func,Init,NC,NC With Date,Logfile
Median:,0.52,7.12,7.95,6.88,7.59
CI (+/-):,0.04,0.49,0.61,0.46,0.30
SD:,0.11,1.30,1.63,1.24,0.82
Values:,0.54,0.10,16.13,12.51,9.74
,0.49,5.79,7.99,6.98,6.87
,0.51,6.76,7.69,5.87,8.05
,0.52,7.24,7.29,5.98,7.20
,0.65,7.19,7.59,6.93,7.18
,0.69,6.50,7.82,6.02,8.47
,0.48,7.26,7.42,6.88,7.11
,0.76,7.21,8.21,6.84,8.73
,0.49,7.15,9.55,7.01,7.72
,0.43,7.17,7.92,6.87,6.62
,0.54,7.10,8.33,7.99,7.97
,0.80,7.21,7.92,6.65,7.87
,0.47,7.12,7.59,6.97,7.60
,0.44,7.12,8.22,6.93,6.63
,0.49,7.12,7.62,7.81,7.66
,0.76,7.13,9.58,6.88,9.17
,0.53,7.07,7.83,6.92,6.61
,0.54,6.95,7.69,7.95,6.90
,0.53,7.01,7.43,6.79,7.82
,0.73,7.23,8.94,6.94,6.65
,0.47,6.57,7.95,5.74,6.78
,0.54,7.21,9.30,8.89,6.85
,0.46,7.12,7.67,6.86,7.25
,0.45,7.22,8.08,6.40,7.56
,0.50,6.89,10.45,6.87,7.97
,0.52,7.10,9.10,6.93,8.16
,0.44,7.24,7.96,5.75,6.96
,0.54,7.16,8.20,6.86,8.04
,0.64,7.00,8.29,5.98,7.57
,0.54,7.17,7.50,6.94,8.99
