Image:,CirrOS_0.3.2,CirrOS_0.3.2,CirrOS_0.3.2,CirrOS_0.3.2,CirrOS_0.3.2
Flavor:,m1.nano,m1.nano,m1.nano,m1.nano,m1.nano
n:,30,30,30,30,30
Interval:,95%,95%,95%,95%,95%
t:,2.042,2.042,2.042,2.042,2.042
type:,Func,Init,NC,NC With Date,Logfile
Median [s]:,0.53,6.99,1.28,0.58,1.15
CI (+/-) [s]:,0.03,0.08,0.05,0.12,0.04
SD [s]:,0.09,0.22,0.14,0.33,0.11
Values [s]:,0.94,7.59,1.32,0.72,1.23
,0.54,6.72,1.35,0.36,1.06
,0.53,7.21,1.06,0.74,1.15
,0.60,6.81,1.14,0.51,1.09
,0.51,7.27,1.27,0.53,1.41
,0.50,6.80,1.40,0.57,1.07
,0.64,7.19,1.17,0.62,1.17
,0.53,6.74,1.21,0.57,1.32
,0.50,7.06,1.31,0.65,1.08
,0.52,7.00,1.08,0.62,0.93
,0.57,6.74,1.28,0.64,1.16
,0.53,7.07,1.45,0.59,1.03
,0.53,7.11,1.51,0.62,1.15
,0.56,6.88,1.32,0.49,1.12
,0.53,6.99,0.97,-0.36,1.09
,0.58,6.94,1.38,0.63,1.18
,0.59,6.78,1.38,0.49,1.24
,0.55,7.09,1.37,0.69,1.38
,0.52,7.11,1.11,1.30,0.97
,0.45,7.17,1.23,0.55,1.11
,0.56,6.97,1.29,0.29,1.16
,0.71,6.97,1.29,0.59,1.03
,0.52,6.61,1.21,1.37,1.05
,0.52,7.04,1.22,0.61,1.16
,0.48,7.12,1.50,0.40,1.26
,0.58,7.00,1.08,0.55,1.23
,0.54,6.84,1.15,0.45,1.19
,0.53,7.30,1.03,0.51,1.13
,0.54,6.54,1.17,0.49,1.31
,0.51,6.96,1.31,1.47,1.12
